…
``` r
citi_df = 
  bind_rows(jan_20_df, jan_24_df, jul_20_df, jul_24_df)
  
citi_df[!complete.cases(citi_df), ]
```

    ## # A tibble: 232 × 9
    ##    ride_id   rideable_type weekdays duration start_station_name end_station_name
    ##    <chr>     <chr>         <chr>       <dbl> <chr>              <chr>           
    ##  1 12E6A400… classic_bike  Friday      11.8  W 26 St & 10 Ave   <NA>            
    ##  2 E19798CD… classic_bike  Thursday    24.2  E 11 St & 2 Ave    <NA>            
    ##  3 C9E7F443… electric_bike Thursday     8.21 <NA>               <NA>            
    ##  4 771F4640… classic_bike  Sunday      11.8  Halsey St & Broad… <NA>            
    ##  5 4EBF8F01… classic_bike  Monday       9.18 W 54 St & 9 Ave    <NA>            
    ##  6 499B2519… classic_bike  Sunday       7.24 W 38 St & 8 Ave    <NA>            
    ##  7 DE33B141… classic_bike  Monday       7.17 E 47 St & Park Ave <NA>            
    ##  8 AF1944E7… electric_bike Thursday    32.3  <NA>               <NA>            
    ##  9 FBC5DBEA… classic_bike  Friday     117.   W 20 St & 11 Ave   <NA>            
    ## 10 8BD02AC2… classic_bike  Friday      13.2  W 11 St & 6 Ave    <NA>            
    ## # ℹ 222 more rows
    ## # ℹ 3 more variables: member_casual <chr>, month <chr>, year <chr>
…
